<?xml version="1.0" encoding="UTF-8" standalone="no"?>
<svg xmlns="http://www.w3.org/2000/svg" height="18.95mm" width="18.77mm" version="1.1" viewBox="0 0 18.765711 18.951204">
 <g transform="translate(-56.7 -81.89)">
  <g transform="rotate(-60 63.63 91.34)">
   <path style="color-rendering:auto;color:#000000;isolation:auto;mix-blend-mode:normal;shape-rendering:auto;solid-color:#000000;image-rendering:auto;fill:#19b6ee" d="m60.24 87.56a18.43 18.43 0 0 0 -0.669 0.9996 18.43 18.43 0 0 0 -0.8669 1.626 18.43 18.43 0 0 0 -0.7002 1.704 18.43 18.43 0 0 0 -0.5265 1.766 18.43 18.43 0 0 0 -0.3352 1.744 18.43 18.43 0 0 0 -0.02581 0.212 18.43 18.43 0 0 0 -0.148 1.644 18.43 18.43 0 0 0 -0.0074 0.2077 18.43 18.43 0 0 0 -0.01119 0.5449 18.43 18.43 0 0 0 0.0054 0.1525 18.43 18.43 0 0 0 1.644 0.8321 18.43 18.43 0 0 0 1.719 0.6639 18.43 18.43 0 0 0 1.777 0.4889 18.43 18.43 0 0 0 1.816 0.309 18.43 18.43 0 0 0 0.7719 0.053 11.01 11.01 0 0 1 -0.3121 -2.548 11.01 11.01 0 0 1 1.695 -5.829 11.01 11.01 0 0 0 -5.826 -4.571z"/>
   <path d="m66.05 82.14a18.43 18.43 0 0 0 -1.54 1.011 18.43 18.43 0 0 0 -1.431 1.16 18.43 18.43 0 0 0 -1.309 1.297 18.43 18.43 0 0 0 -1.173 1.421 18.43 18.43 0 0 0 -0.3558 0.5317 11.01 11.01 0 0 1 6.405 5.593 11.08 11.08 0 0 0 6.824 -2.853 18.43 18.43 0 0 0 -0.5286 -1.09 18.43 18.43 0 0 0 -0.9653 -1.569 18.43 18.43 0 0 0 -1.117 -1.465 18.43 18.43 0 0 0 -1.258 -1.346 18.43 18.43 0 0 0 -1.386 -1.214 18.43 18.43 0 0 0 -1.5 -1.07 18.43 18.43 0 0 0 -0.6649 -0.4063zm9.15 15.94a18.43 18.43 0 0 1 -7.716 2.381 11.01 11.01 0 0 1 -0.01085 0.0482 18.43 18.43 0 0 0 0.4114 -0.0217 18.43 18.43 0 0 0 1.821 -0.28 18.43 18.43 0 0 0 1.784 -0.4603 18.43 18.43 0 0 0 1.729 -0.6361 18.43 18.43 0 0 0 1.657 -0.8058 18.43 18.43 0 0 0 0.3223 -0.1814 18.43 18.43 0 0 0 0.0017 -0.04423z" style="color-rendering:auto;color:#000000;isolation:auto;mix-blend-mode:normal;shape-rendering:auto;solid-color:#000000;image-rendering:auto;fill:#38b44a"/>
   <path style="color-rendering:auto;color:#000000;isolation:auto;mix-blend-mode:normal;shape-rendering:auto;solid-color:#000000;image-rendering:auto;fill:#df382c" d="m73.47 90.3a11.08 11.08 0 0 1 -7.431 2.879 11.08 11.08 0 0 1 -0.5274 -0.02717 11.01 11.01 0 0 0 -1.14 4.808 11.01 11.01 0 0 0 0.3065 2.519 18.43 18.43 0 0 0 1.361 0.057 18.43 18.43 0 0 0 9.17 -2.46 18.43 18.43 0 0 0 0.0017 -0.03113 18.43 18.43 0 0 0 -0.09463 -1.84 18.43 18.43 0 0 0 -0.2782 -1.821 18.43 18.43 0 0 0 -0.4584 -1.785 18.43 18.43 0 0 0 -0.6341 -1.73 18.43 18.43 0 0 0 -0.2753 -0.5677zm-16.33 5.102a18.43 18.43 0 0 0 -0.01239 0.0635 18.43 18.43 0 0 0 -0.01325 0.1463 18.43 18.43 0 0 1 0.02564 -0.2098zm-0.1736 1.855a18.43 18.43 0 0 0 -0.004 0.04371 18.43 18.43 0 0 0 -0.0033 0.1561 18.43 18.43 0 0 1 0.0072 -0.1998z"/>
   <path style="stroke-linejoin:round;color-rendering:auto;color:#000000;shape-rendering:auto;solid-color:#000000;stroke:#000;stroke-width:.5057;fill:none;mix-blend-mode:normal;image-rendering:auto;isolation:auto" d="m66.05 82.14a18.43 18.43 0 0 0 -9.099 15.87 18.43 18.43 0 0 0 0.0053 0.1525 18.43 18.43 0 0 0 9.09 2.423 18.43 18.43 0 0 0 9.161 -2.464 18.43 18.43 0 0 0 0.0038 -0.07571 18.43 18.43 0 0 0 -9.161 -15.91z"/>
  </g>
 </g>
</svg>
