<?xml version="1.0" encoding="UTF-8" standalone="no"?>
<svg xmlns="http://www.w3.org/2000/svg" height="71" width="71" version="1.1" viewBox="0 0 18.781124 18.78661">
 <g transform="matrix(.3261 0 0 -.3261 15.19 10.75)">
  <path style="color-rendering:auto;color:#000000;isolation:auto;mix-blend-mode:normal;shape-rendering:auto;solid-color:#000000;image-rendering:auto;fill:#df382c" d="m-44.62-16.46a55.36 55.36 0 0 0 -0.9359 0.5302 55.36 55.36 0 0 1 4.641 3.015 55.36 55.36 0 0 1 4.316 3.463 55.36 55.36 0 0 1 3.949 3.876 55.36 55.36 0 0 1 3.543 4.252 55.36 55.36 0 0 1 1.216 1.798 33.27 33.27 0 0 1 9.36 -1.399 33.27 33.27 0 0 1 10.56 1.751 55.36 55.36 0 0 1 0.1902 -0.308 55.36 55.36 0 0 1 3.366 -4.392 55.36 55.36 0 0 1 3.788 -4.034 55.36 55.36 0 0 1 4.172 -3.636 55.36 55.36 0 0 1 4.514 -3.201 55.36 55.36 0 0 1 1.188 -0.7225 55.36 55.36 0 0 0 -27.78 -7.552 55.36 55.36 0 0 0 -26.09 6.558z"/>
  <path d="m-17.79-23.47a55.36 55.36 0 0 0 -27.77 7.547 55.36 55.36 0 0 1 27.56 47.53 55.36 55.36 0 0 1 0.3256 0.1995 55.36 55.36 0 0 1 0.09511 -0.0543 55.36 55.36 0 0 1 27.57 -47.66 55.36 55.36 0 0 0 -27.78 -7.555z" style="stroke-linejoin:round;color-rendering:auto;color:#000000;shape-rendering:auto;solid-color:#000000;stroke:#000;stroke-width:1.519;fill:none;mix-blend-mode:normal;image-rendering:auto;isolation:auto"/>
 </g>
</svg>
