<?xml version="1.0" encoding="UTF-8" standalone="no"?>
<svg xmlns="http://www.w3.org/2000/svg" height="18.95mm" width="18.77mm" version="1.1" viewBox="0 0 18.765711 18.951204">
 <g transform="matrix(.1652 -.2861 -.2861 -.1652 31.72 34.7)">
  <path style="color-rendering:auto;color:#000000;isolation:auto;mix-blend-mode:normal;shape-rendering:auto;solid-color:#000000;image-rendering:auto;fill:#df382c" d="m30.75 75.47a55.36 55.36 0 0 0 -1.534 0.1034 55.36 55.36 0 0 0 -5.456 0.9209 55.36 55.36 0 0 0 -5.338 1.461 55.36 55.36 0 0 0 -5.165 1.986 55.36 55.36 0 0 0 -4.941 2.492 55.36 55.36 0 0 0 -0.0176 0.4945 55.36 55.36 0 0 0 0.0713 2.754 55.36 55.36 0 0 0 0.556 5.506 55.36 55.36 0 0 0 1.103 5.423 55.36 55.36 0 0 0 1.639 5.285 55.36 55.36 0 0 0 2.158 5.095 55.36 55.36 0 0 0 2.657 4.854 55.36 55.36 0 0 0 3.127 4.565 55.36 55.36 0 0 0 3.568 4.23 55.36 55.36 0 0 0 3.972 3.852 55.36 55.36 0 0 0 4.337 3.437 55.36 55.36 0 0 0 4.272 2.739 55.36 55.36 0 0 1 0.0362 -1.746 55.36 55.36 0 0 1 0.4961 -5.511 55.36 55.36 0 0 1 1.044 -5.434 55.36 55.36 0 0 1 1.581 -5.303 55.36 55.36 0 0 1 1.92 -4.675 33.27 33.27 0 0 1 -11.06 -24.72 33.27 33.27 0 0 1 0.9695 -7.808z"/>
  <path style="stroke-linejoin:round;color-rendering:auto;color:#000000;isolation:auto;mix-blend-mode:normal;shape-rendering:auto;solid-color:#000000;stroke:#000;image-rendering:auto;stroke-width:1.519;fill:none" d="m35.61 75.19a55.36 55.36 0 0 1 28.03 7.688 55.36 55.36 0 0 0 -27.51 47.78 55.36 55.36 0 0 0 0.0129 0.2563 55.36 55.36 0 0 1 -27.85 -47.99 55.36 55.36 0 0 1 0.0176 -0.4945 55.36 55.36 0 0 1 27.3 -7.24z"/>
 </g>
</svg>
